[
	{ 
	   "nom" : "RTFM",
       "definition": "Read The Fucking Manual - Acronyme sympathique et motivant supposé t'inviter à lire la documentation pour résoudre ton problème ",
       "ressource_externe": "" ,
       "contributeur": "E.G" ,
       "ajout_le": "13/08/19" ,
       "modification_le": "13/08/19"
	}
]